﻿{
    "_globals": {
        "_components": {
            "_accordion": {
                "ariaRegion": "Компонент состоит из нескольких свертываемых панелей с текстом. Выберите названия элементов, чтобы показать или скрыть панели с контентом.",
                "instruction": ""
            },
            "_gmcq": {
                "ariaRegion": "Компонент является вопросом с несколькими вариантами ответа в графическом формате. Выбрав вариант, нажмите «Отправить».",
                "instruction": ""
            },
            "_hotgraphic": {
                "ariaRegion": "Компонент ниже позволяет выбрать маркеры на изображении. Выбрав маркер, вы увидите всплывающее окно с изображением и текстом. Чтобы его закрыть, нажмите «Закрыть».",
                "ariaPoupupLabel": "Всплывающее окно с изображением"
            },
            "_matching": {
                "ariaRegion": "Для компонента «Вопрос» выберите правильный ответ из раскрывающегося списка ниже. Выбрав ответы, нажмите «Отправить».",
                "instruction": ""
            },
            "_mcq": {
                "ariaRegion": "Компонент является вопросом с несколькими вариантами ответа. Выбрав вариант, нажмите «Отправить».",
                "instruction": ""
            },
            "_media": {
                "ariaRegion": "Мультимедийный компонент, который воспроизводит видео. Нажмите кнопку «Воспроизведение/пауза», чтобы посмотреть видео или послушать аудио. Можно также выбрать ссылку ниже и посмотреть субтитры.",
                "transcriptButton": "Можно также выбрать ссылку ниже и посмотреть субтитры.",
                "instruction": ""
            },
            "_narrative": {
                "ariaRegion": "Компонент показывает галерею изображений с текстом. Для перемещения по тексту воспользуйтесь стрелками вперед и назад.",
                "instruction": ""
            },
            "_slider": {
                "ariaRegion": "Для компонента требуется ответ на вопрос (выберите подходящее значение). Сделав это, нажмите «Отправить» ниже.",
                "instruction": ""
            },
            "_textinput": {
                "ariaRegion": "Для компонента «Вопрос» нужно ввести ответ в соответствующее поле. Ответив, нажмите «Отправить»."
            },
            "_mcq-truefalse": {
                "ariaRegion": "Компонент является вопросом с несколькими вариантами ответа. Выбрав вариант, нажмите «Отправить»."
            },
            "_blank": {
                "ariaRegion": "",
                "instruction": ""
            },
            "_graphic": {
                "ariaRegion": "",
                "instruction": ""
            },
            "_hotGraphic": {
                "ariaRegion": "Компонент ниже позволяет выбрать маркеры на изображении. Выбрав маркер, вы увидите всплывающее окно с изображением и текстом. Чтобы его закрыть, нажмите «Закрыть».",
                "instruction": ""
            },
            "_text": {
                "ariaRegion": "",
                "instruction": ""
            },
            "_textInput": {
                "ariaRegion": "Для компонента «Вопрос» нужно ввести ответ в соответствующее поле. Ответив, нажмите «Отправить».",
                "instruction": ""
            }
        },
        "_extensions": {
            "_pageLevelProgress": {
                "pageLevelProgress": "Разделы страницы",
                "pageLevelProgressIndicatorBar": "Прогресс прохождения курса. Нажмите здесь, чтобы увидеть, сколько вы прошли, и выбрать элемент для перехода. Пройдено ",
                "pageLevelProgressEnd": "Вы дошли до конца списка разделов страниц.",
                "optionalContent": "Дополнительные материалы"
            }
        },
        "_menu": {
            "_boxmenu": {
                "ariaRegion": "Меню",
                "menuItem": "Пункт меню.",
                "menuEnd": "Вы дошли до конца меню."
            }
        },
        "_accessibility": {
            "_accessibilityToggleTextOn": "Включить доступ?",
            "_accessibilityToggleTextOff": "Отключить доступ?",
            "_accessibilityInstructions": {
                "touch": "Инструкции по применению. Чтобы перейти на следующую страницу, проведите пальцем влево. Чтобы вернуться на предыдущую страницу, проведите пальцем вправо. Дважды коснитесь элемента, чтобы выбрать его. Чтобы перейти в верхнюю часть страницы, проведите двумя пальцами вверх.",
                "notouch": "Инструкции по применению. Чтобы перейти на следующую страницу, воспользуйтесь клавишей табуляции. Чтобы вернуться на предыдущую страницу, нажмите Shift+Tab Чтобы выбрать элемент, нажмите Enter. Чтобы перейти в верхнюю часть страницы, нажмите Esc.",
                "ipad": "Инструкции по применению для устройств с сенсорными экранами. Чтобы перейти на следующую страницу, проведите пальцем влево. Чтобы вернуться на предыдущую страницу, проведите пальцем вправо. Дважды коснитесь элемента, чтобы выбрать его. Чтобы перейти в верхнюю часть страницы, проведите двумя пальцами вверх. Инструкции по применению для устройств с клавиатурой. Чтобы перейти на следующую страницу, нажмите клавишу со стрелкой влево. Чтобы вернуться на предыдущую страницу, нажмите клавишу со стрелкой вправо. Чтобы выбрать элемент, одновременно нажмите клавиши со стрелками вверх и вниз."
            },
            "_ariaLabels": {
                "navigation": "Панель навигации",
                "menuLoaded": "Меню загружено.",
                "menu": "Меню",
                "page": "Страница",
                "pageLoaded": "Страница загружена.",
                "pageEnd": "Вы дошли до конца страницы.",
                "previous": "Назад",
                "navigationBack": "Назад",
                "navigationDrawer": "Открыть ресурсы курса.",
                "close": "Закрыть",
                "closeDrawer": "Закрыть панель",
                "closeResources": "Закрыть ресурсы",
                "resourcesEnd": "Вы дошли до конца списка ресурсов.",
                "drawerBack": "Вернуться в панель",
                "drawer": "Верхняя часть боковой панели",
                "closePopup": "Закрыть всплывающее окно",
                "next": "Далее",
                "done": "Готово",
                "complete": "Завершено",
                "incomplete": "Не завершено",
                "incorrect": "Неправильно",
                "correct": "Правильно",
                "locked": "Заблокировано",
                "accessibilityToggleButton": "Кнопка поможет настроить доступ к элементу.",
                "feedbackPopUp": "Всплывающее окно открыто.",
                "menuBack": "Вернуться в меню",
                "visited": "Просмотрено"
            }
        }
    },
    "_id": "course",
    "_type": "course",
    "title": "Закупочный тип «Охват и частота» на Facebook",
    "displayTitle": "Закупочный тип «Охват и частота» на Facebook",
    "body": "",
    "_buttons": {
        "_submit": {
            "buttonText": "Отправить",
            "ariaLabel": "Нажмите здесь, чтобы ответить."
        },
        "_reset": {
            "buttonText": "Сбросить",
            "ariaLabel": "Нажмите, чтобы сбросить вопрос."
        },
        "_showCorrectAnswer": {
            "buttonText": "Правильный ответ",
            "ariaLabel": "Нажмите, чтобы посмотреть правильный ответ."
        },
        "_hideCorrectAnswer": {
            "buttonText": "Мой ответ",
            "ariaLabel": "Нажмите здесь, чтобы посмотреть ответ."
        },
        "_showFeedback": {
            "buttonText": "Показать комментарий",
            "ariaLabel": "Нажмите здесь, чтобы еще раз посмотреть комментарий к вопросу."
        },
        "remainingAttemptsText": "осталось попыток",
        "remainingAttemptText": "последняя попытка",
        "disabledAriaLabel": "Кнопка недоступна."
    },
    "_latestTrackingId": 46,
    "_pageLevelProgress": {
        "_isEnabled": true,
        "_altText": "компонентов на этой странице пройдено."
    },
    "_bookmarking": {
        "_isEnabled": false,
        "_level": "block",
        "title": "Закладки",
        "body": "Хотите продолжить с того места, где вы остановились в прошлый раз?",
        "_buttons": {
            "yes": "Да",
            "no": "Нет"
        }
    },
    "_analytics": {
        "_isEnabled": true
    }
}